tmp/fev.vcd
$date
    Wed May 22 10:02:23 2024
$end
$version
    Generated by Yosys 0.41+8 (git sha1 1a54e8d47, clang++ 14.0.0-1ubuntu1.1 -fPIC -Os)
$end
$comment
    Generated from SAT problem in module \miter (declared at unknown)
$end
$scope module \miter $end
$var wire 1 v0 _auto_miter.cc_242_create_miter_equiv_4 $end
$var wire 1 v1 \gate.a $end
$var wire 1 v2 \gate.b $end
$var wire 1 v3 \gate.y $end
$var wire 1 v4 \gate_y $end
$var wire 1 v5 \gold.a $end
$var wire 1 v6 \gold.b $end
$var wire 1 v7 \gold.y $end
$var wire 1 v8 \gold_y $end
$var wire 1 v9 \in_a $end
$var wire 1 v10 \in_b $end
$var wire 1 v11 \trigger $end
$upscope $end
$enddefinitions $end
$dumpvars
#1
0v0
xv1
0v2
0v3
0v4
xv5
0v6
xv7
xv8
xv9
0v10
1v11
#2
1v0
0v1
0v2
0v3
0v4
0v5
0v6
0v7
0v8
0v9
0v10
0v11
#3
1v0
0v1
0v2
0v3
0v4
0v5
0v6
0v7
0v8
0v9
0v10
0v11
#4
1v0
0v1
0v2
0v3
0v4
0v5
0v6
0v7
0v8
0v9
0v10
0v11
#5
1v0
0v1
0v2
0v3
0v4
0v5
0v6
0v7
0v8
0v9
0v10
0v11
#6
1v0
0v1
0v2
0v3
0v4
0v5
0v6
0v7
0v8
0v9
0v10
0v11
#7
1v0
0v1
0v2
0v3
0v4
0v5
0v6
0v7
0v8
0v9
0v10
0v11
#8
1v0
0v1
0v2
0v3
0v4
0v5
0v6
0v7
0v8
0v9
0v10
0v11
#9
1v0
0v1
0v2
0v3
0v4
0v5
0v6
0v7
0v8
0v9
0v10
0v11
#10
1v0
0v1
0v2
0v3
0v4
0v5
0v6
0v7
0v8
0v9
0v10
0v11
#11
1v0
0v1
0v2
0v3
0v4
0v5
0v6
0v7
0v8
0v9
0v10
0v11
#12
1v0
0v1
0v2
0v3
0v4
0v5
0v6
0v7
0v8
0v9
0v10
0v11
#13
1v0
0v1
0v2
0v3
0v4
0v5
0v6
0v7
0v8
0v9
0v10
0v11
#14
1v0
0v1
0v2
0v3
0v4
0v5
0v6
0v7
0v8
0v9
0v10
0v11
#15
1v0
0v1
0v2
0v3
0v4
0v5
0v6
0v7
0v8
0v9
0v10
0v11
#16
1v0
0v1
0v2
0v3
0v4
0v5
0v6
0v7
0v8
0v9
0v10
0v11
#17
1v0
0v1
0v2
0v3
0v4
0v5
0v6
0v7
0v8
0v9
0v10
0v11
#18
1v0
0v1
0v2
0v3
0v4
0v5
0v6
0v7
0v8
0v9
0v10
0v11
#19
1v0
0v1
0v2
0v3
0v4
0v5
0v6
0v7
0v8
0v9
0v10
0v11
